…
``` r
month_df = 
  tibble(
    month = 1:12,
    month_name = month.name
  )

precip_df = 
  bind_rows(precip_2018,precip_2017)

left_join(precip_df, month_df, by = "month")
```

    ## # A tibble: 24 x 4
    ##     year month total month_name
    ##    <dbl> <dbl> <dbl> <chr>     
    ##  1  2018     1  0.94 January   
    ##  2  2018     2  4.8  February  
    ##  3  2018     3  2.69 March     
    ##  4  2018     4  4.69 April     
    ##  5  2018     5  9.27 May       
    ##  6  2018     6  4.77 June      
    ##  7  2018     7 10.2  July      
    ##  8  2018     8  6.45 August    
    ##  9  2018     9 10.5  September 
    ## 10  2018    10  2.12 October   
    ## # … with 14 more rows
…
mutate(month = recode(month, "jan" = "1", "feb" = "2",  "mar" = "3", "apr" = "4", "may" = "5","jun" = "6", "jul" = "7", "aug" = "8", "sep" = "9", "oct" = "10", "nov" = "11", "dec" = "12"))
```

Join the datasets together.

``` r
temp1 = left_join(pols_month_tidy,snp_original, by = "month")
five_thirty_eight = left_join(temp1, unemployment_tidy, by = "month")
five_thirty_eight
```

    ## # A tibble: 5,413,788 x 8
    ##    year.x month president value year.y close  year unemployment_rate
    ##    <chr>  <chr> <chr>     <dbl> <chr>  <dbl> <int>             <dbl>
    ##  1 1947   01    gov_gop      23 <NA>      NA    NA                NA
    ##  2 1947   01    sen_gop      51 <NA>      NA    NA                NA
    ##  3 1947   01    rep_gop     253 <NA>      NA    NA                NA
    ##  4 1947   01    gov_dem      23 <NA>      NA    NA                NA
    ##  5 1947   01    sen_dem      45 <NA>      NA    NA                NA
    ##  6 1947   01    rep_dem     198 <NA>      NA    NA                NA
    ##  7 1947   02    gov_gop      23 <NA>      NA    NA                NA
    ##  8 1947   02    sen_gop      51 <NA>      NA    NA                NA
    ##  9 1947   02    rep_gop     253 <NA>      NA    NA                NA
    ## 10 1947   02    gov_dem      23 <NA>      NA    NA                NA
    ## # … with 5,413,778 more rows
…
